{
  "hash": "56655d36",
  "browserHash": "d6e1b68e",
  "optimized": {
    "tw-elements/dist/js/tw-elements.es.min.js": {
      "src": "../../node_modules/tw-elements/dist/js/tw-elements.es.min.js",
      "file": "tw-elements_dist_js_tw-elements__es__min__js.js",
      "fileHash": "ed558b4b",
      "needsInterop": false
    },
    "tw-elements": {
      "src": "../../node_modules/tw-elements/dist/js/tw-elements.es.min.js",
      "file": "tw-elements.js",
      "fileHash": "a88601e8",
      "needsInterop": false
    }
  },
  "chunks": {
    "chunk-5ITLLMLA": {
      "file": "chunk-5ITLLMLA.js"
    },
    "chart.es-A2JTKPLE": {
      "file": "chart__es-A2JTKPLE.js"
    },
    "chartjs-plugin-datalabels.es-NS6CAF6M": {
      "file": "chartjs-plugin-datalabels__es-NS6CAF6M.js"
    },
    "chunk-V6QTV3EI": {
      "file": "chunk-V6QTV3EI.js"
    }
  }
}